{
  "builders": [
    {
      "type": "virtualbox-iso",
      "vm_name": "box",
      "boot_wait": "10s",
      "disk_size": 512000,
      "guest_os_type": "RedHat_64",
      "iso_checksum": "9381a24b8bee2fed0c26896141a64b69",
      "iso_checksum_type": "md5",
      "iso_url": "http://ftp.iij.ad.jp/pub/linux/centos/6.7/isos/x86_64/CentOS-6.7-x86_64-minimal.iso",
      "ssh_username": "vagrant",
      "ssh_password": "vagrant",
      "ssh_port": 22,
      "ssh_wait_timeout": "10000s",
      "shutdown_command": "echo '/sbin/halt -h -p' > shutdown.sh; echo 'vagrant'|sudo -S sh 'shutdown.sh'",
      "guest_additions_path": "VBoxGuestAdditions_{{.Version}}.iso",
      "virtualbox_version_file": ".vbox_version",
      "vboxmanage": [
        [
          "modifyvm",
          "{{.Name}}",
          "--memory",
          "2048"
        ],
        [
          "modifyvm",
          "{{.Name}}",
          "--cpus",
          "2"
        ]
      ],
      "http_directory": "./packer/builders/",
      "boot_command": [
        "<tab> text ks=http://{{ .HTTPIP }}:{{ .HTTPPort }}/ks.cfg<enter><wait>"
      ]
    }
  ],
  "provisioners": [
    {
      "type": "shell",
      "scripts": [
        "packer/provisioners/disable-ipv6.sh",
        "packer/provisioners/update-hostname.sh",
        "packer/provisioners/base.sh",
        "packer/provisioners/install-wandisco-git.sh",
        "packer/provisioners/install-java.sh",
        "packer/provisioners/install-httpd.sh",
        "packer/provisioners/install-jenkins.sh",
        "packer/provisioners/install-tomcat.sh",
        "packer/provisioners/vagrant.sh",
        "packer/provisioners/virtualbox.sh",
        "packer/provisioners/cleanup.sh"
      ],
      "override": {
        "virtualbox-iso": {
          "execute_command": "echo 'vagrant'|sudo -S sh '{{.Path}}'"
        }
      }
    }
  ],
  "post-processors": [
    {
      "type": "vagrant",
      "output": "./packer/vagrant-boxes/CentOS-6.6-x86_64-minimal.box"
    }
  ]
}
